Starting thread "main" at time 10
At PC = 0x0: JAL 96
At PC = 0x4: SLL r0,r0,0
At PC = 0x180: ADDIU r29,r29,-56
At PC = 0x184: SW r31,52(r29)
At PC = 0x188: SW r30,48(r29)
At PC = 0x18c: JAL 92
At PC = 0x190: ADDU r30,r29,r0
At PC = 0x170: JR r0,r31
At PC = 0x174: SLL r0,r0,0
At PC = 0x194: SW r0,16(r30)
At PC = 0x198: ADDIU r2,r0,40
At PC = 0x19c: JAL 40
At PC = 0x1a0: SW r2,36(r30)
At PC = 0xa0: ADDIU r2,r0,9
At PC = 0xa4: SYSCALL
Exception: syscall
Calling thread fork
Forking thread "2 CHILD" with func = 0x804e005, arg = 0
Putting thread 2 CHILD on ready list.
At PC = 0xa8: JR r0,r31
At PC = 0xac: SLL r0,r0,0
At PC = 0x1a4: SW r2,20(r30)
At PC = 0x1a8: LW r2,20(r30)
At PC = 0x1ac: SLL r0,r0,0
At PC = 0x1b0: BNE r2,r0,88
At PC = 0x1b4: SLL r0,r0,0
At PC = 0x314: JAL 52
At PC = 0x318: ADDIU r4,r0,68
At PC = 0xd0: ADDIU r2,r0,12
At PC = 0xd4: SYSCALL
Exception: syscall
DAt PC = 0xd8: JR r0,r31
At PC = 0xdc: SLL r0,r0,0
At PC = 0x31c: LW r4,16(r30)
At PC = 0x320: JAL 48
At PC = 0x324: SLL r0,r0,0
At PC = 0xc0: ADDIU r2,r0,11
At PC = 0xc4: SYSCALL
Exception: syscall
Sleeping thread "main"
Switching from thread "main" to thread "2 CHILD"
Now in thread "2 CHILD"
 Restored thread COMPLETELYStarting thread "2 CHILD" at time 72
At PC = 0xa8: JR r0,r31
At PC = 0xac: SLL r0,r0,0
At PC = 0x1a4: SW r2,20(r30)
At PC = 0x1a8: LW r2,20(r30)
At PC = 0x1ac: SLL r0,r0,0
At PC = 0x1b0: BNE r2,r0,88
At PC = 0x1b4: SLL r0,r0,0
At PC = 0x1b8: JAL 52
At PC = 0x1bc: ADDIU r4,r0,66
At PC = 0xd0: ADDIU r2,r0,12
At PC = 0xd4: SYSCALL
Exception: syscall
Sleeping thread "2 CHILD"
Putting thread main on ready list.
Switching from thread "2 CHILD" to thread "main"
Now in thread "main"
0At PC = 0xc8: JR r0,r31
At PC = 0xcc: SLL r0,r0,0
At PC = 0x328: JAL 52
At PC = 0x32c: ADDIU r4,r0,10
At PC = 0xd0: ADDIU r2,r0,12
At PC = 0xd4: SYSCALL
Exception: syscall
Sleeping thread "main"
Putting thread 2 CHILD on ready list.
Switching from thread "main" to thread "2 CHILD"
Now in thread "2 CHILD"
BAt PC = 0xd8: JR r0,r31
At PC = 0xdc: SLL r0,r0,0
At PC = 0x1c0: LW r4,16(r30)
At PC = 0x1c4: JAL 48
At PC = 0x1c8: SLL r0,r0,0
At PC = 0xc0: ADDIU r2,r0,11
At PC = 0xc4: SYSCALL
Exception: syscall
Sleeping thread "2 CHILD"
Putting thread main on ready list.
Switching from thread "2 CHILD" to thread "main"
Now in thread "main"

At PC = 0xd8: JR r0,r31
At PC = 0xdc: SLL r0,r0,0
At PC = 0x330: JAL 40
At PC = 0x334: SLL r0,r0,0
At PC = 0xa0: ADDIU r2,r0,9
At PC = 0xa4: SYSCALL
Exception: syscall
Calling thread fork
Forking thread "3 CHILD" with func = 0x804e005, arg = 0
Putting thread 3 CHILD on ready list.
Yielding thread "main"
Putting thread main on ready list.
Switching from thread "main" to thread "3 CHILD"
Now in thread "3 CHILD"
 Restored thread COMPLETELYStarting thread "3 CHILD" at time 411
At PC = 0xa8: JR r0,r31
At PC = 0xac: SLL r0,r0,0
At PC = 0x338: SW r2,40(r30)
At PC = 0x33c: LW r2,40(r30)
At PC = 0x340: SLL r0,r0,0
At PC = 0x344: BNE r2,r0,32
At PC = 0x348: SLL r0,r0,0
At PC = 0x34c: ADDIU r2,r0,21
At PC = 0x350: SW r2,24(r30)
At PC = 0x354: LW r2,24(r30)
At PC = 0x358: SLL r0,r0,0
At PC = 0x35c: SLTI r2,r2,31
At PC = 0x360: BNE r2,r0,3
At PC = 0x364: SLL r0,r0,0
At PC = 0x370: LW r3,16(r30)
At PC = 0x374: LW r2,24(r30)
At PC = 0x378: SLL r0,r0,0
At PC = 0x37c: ADDU r2,r3,r2
At PC = 0x380: SW r2,16(r30)
At PC = 0x384: LW r2,24(r30)
At PC = 0x388: SLL r0,r0,0
At PC = 0x38c: ADDIU r2,r2,1
At PC = 0x390: J 213
At PC = 0x394: SW r2,24(r30)
At PC = 0x354: LW r2,24(r30)
At PC = 0x358: SLL r0,r0,0
At PC = 0x35c: SLTI r2,r2,31
At PC = 0x360: BNE r2,r0,3
At PC = 0x364: SLL r0,r0,0
At PC = 0x370: LW r3,16(r30)
At PC = 0x374: LW r2,24(r30)
At PC = 0x378: SLL r0,r0,0
At PC = 0x37c: ADDU r2,r3,r2
At PC = 0x380: SW r2,16(r30)
At PC = 0x384: LW r2,24(r30)
At PC = 0x388: SLL r0,r0,0
At PC = 0x38c: ADDIU r2,r2,1
At PC = 0x390: J 213
At PC = 0x394: SW r2,24(r30)
At PC = 0x354: LW r2,24(r30)
At PC = 0x358: SLL r0,r0,0
At PC = 0x35c: SLTI r2,r2,31
At PC = 0x360: BNE r2,r0,3
At PC = 0x364: SLL r0,r0,0
At PC = 0x370: LW r3,16(r30)
At PC = 0x374: LW r2,24(r30)
At PC = 0x378: SLL r0,r0,0
At PC = 0x37c: ADDU r2,r3,r2
At PC = 0x380: SW r2,16(r30)
At PC = 0x384: LW r2,24(r30)
At PC = 0x388: SLL r0,r0,0
At PC = 0x38c: ADDIU r2,r2,1
At PC = 0x390: J 213
At PC = 0x394: SW r2,24(r30)
At PC = 0x354: LW r2,24(r30)
At PC = 0x358: SLL r0,r0,0
At PC = 0x35c: SLTI r2,r2,31
At PC = 0x360: BNE r2,r0,3
At PC = 0x364: SLL r0,r0,0
At PC = 0x370: LW r3,16(r30)
At PC = 0x374: LW r2,24(r30)
At PC = 0x378: SLL r0,r0,0
At PC = 0x37c: ADDU r2,r3,r2
At PC = 0x380: SW r2,16(r30)
At PC = 0x384: LW r2,24(r30)
At PC = 0x388: SLL r0,r0,0
At PC = 0x38c: ADDIU r2,r2,1
At PC = 0x390: J 213
At PC = 0x394: SW r2,24(r30)
At PC = 0x354: LW r2,24(r30)
At PC = 0x358: SLL r0,r0,0
At PC = 0x35c: SLTI r2,r2,31
At PC = 0x360: BNE r2,r0,3
At PC = 0x364: SLL r0,r0,0
Putting thread 2 CHILD on ready list.
At PC = 0x370: LW r3,16(r30)
At PC = 0x374: LW r2,24(r30)
At PC = 0x378: SLL r0,r0,0
At PC = 0x37c: ADDU r2,r3,r2
At PC = 0x380: SW r2,16(r30)
At PC = 0x384: LW r2,24(r30)
At PC = 0x388: SLL r0,r0,0
At PC = 0x38c: ADDIU r2,r2,1
At PC = 0x390: J 213
At PC = 0x394: SW r2,24(r30)
At PC = 0x354: LW r2,24(r30)
At PC = 0x358: SLL r0,r0,0
At PC = 0x35c: SLTI r2,r2,31
At PC = 0x360: BNE r2,r0,3
At PC = 0x364: SLL r0,r0,0
At PC = 0x370: LW r3,16(r30)
Yielding thread "3 CHILD"
Putting thread 3 CHILD on ready list.
Switching from thread "3 CHILD" to thread "main"
Now in thread "main"
At PC = 0xa8: JR r0,r31
At PC = 0xac: SLL r0,r0,0
At PC = 0x338: SW r2,40(r30)
At PC = 0x33c: LW r2,40(r30)
At PC = 0x340: SLL r0,r0,0
At PC = 0x344: BNE r2,r0,32
At PC = 0x348: SLL r0,r0,0
At PC = 0x3c8: ADDIU r2,r0,31
At PC = 0x3cc: SW r2,24(r30)
At PC = 0x3d0: LW r2,24(r30)
At PC = 0x3d4: SLL r0,r0,0
At PC = 0x3d8: SLTI r2,r2,41
At PC = 0x3dc: BNE r2,r0,3
At PC = 0x3e0: SLL r0,r0,0
At PC = 0x3ec: LW r3,16(r30)
At PC = 0x3f0: LW r2,24(r30)
At PC = 0x3f4: SLL r0,r0,0
At PC = 0x3f8: ADDU r2,r3,r2
At PC = 0x3fc: SW r2,16(r30)
At PC = 0x400: LW r2,24(r30)
At PC = 0x404: SLL r0,r0,0
At PC = 0x408: ADDIU r2,r2,1
At PC = 0x40c: J 244
At PC = 0x410: SW r2,24(r30)
At PC = 0x3d0: LW r2,24(r30)
At PC = 0x3d4: SLL r0,r0,0
At PC = 0x3d8: SLTI r2,r2,41
At PC = 0x3dc: BNE r2,r0,3
At PC = 0x3e0: SLL r0,r0,0
At PC = 0x3ec: LW r3,16(r30)
At PC = 0x3f0: LW r2,24(r30)
At PC = 0x3f4: SLL r0,r0,0
At PC = 0x3f8: ADDU r2,r3,r2
At PC = 0x3fc: SW r2,16(r30)
At PC = 0x400: LW r2,24(r30)
At PC = 0x404: SLL r0,r0,0
At PC = 0x408: ADDIU r2,r2,1
At PC = 0x40c: J 244
At PC = 0x410: SW r2,24(r30)
At PC = 0x3d0: LW r2,24(r30)
At PC = 0x3d4: SLL r0,r0,0
At PC = 0x3d8: SLTI r2,r2,41
At PC = 0x3dc: BNE r2,r0,3
At PC = 0x3e0: SLL r0,r0,0
At PC = 0x3ec: LW r3,16(r30)
At PC = 0x3f0: LW r2,24(r30)
At PC = 0x3f4: SLL r0,r0,0
At PC = 0x3f8: ADDU r2,r3,r2
At PC = 0x3fc: SW r2,16(r30)
At PC = 0x400: LW r2,24(r30)
At PC = 0x404: SLL r0,r0,0
At PC = 0x408: ADDIU r2,r2,1
At PC = 0x40c: J 244
At PC = 0x410: SW r2,24(r30)
At PC = 0x3d0: LW r2,24(r30)
At PC = 0x3d4: SLL r0,r0,0
At PC = 0x3d8: SLTI r2,r2,41
At PC = 0x3dc: BNE r2,r0,3
At PC = 0x3e0: SLL r0,r0,0
At PC = 0x3ec: LW r3,16(r30)
At PC = 0x3f0: LW r2,24(r30)
At PC = 0x3f4: SLL r0,r0,0
At PC = 0x3f8: ADDU r2,r3,r2
At PC = 0x3fc: SW r2,16(r30)
At PC = 0x400: LW r2,24(r30)
At PC = 0x404: SLL r0,r0,0
At PC = 0x408: ADDIU r2,r2,1
At PC = 0x40c: J 244
At PC = 0x410: SW r2,24(r30)
At PC = 0x3d0: LW r2,24(r30)
At PC = 0x3d4: SLL r0,r0,0
At PC = 0x3d8: SLTI r2,r2,41
At PC = 0x3dc: BNE r2,r0,3
At PC = 0x3e0: SLL r0,r0,0
At PC = 0x3ec: LW r3,16(r30)
At PC = 0x3f0: LW r2,24(r30)
At PC = 0x3f4: SLL r0,r0,0
At PC = 0x3f8: ADDU r2,r3,r2
At PC = 0x3fc: SW r2,16(r30)
At PC = 0x400: LW r2,24(r30)
At PC = 0x404: SLL r0,r0,0
At PC = 0x408: ADDIU r2,r2,1
At PC = 0x40c: J 244
At PC = 0x410: SW r2,24(r30)
At PC = 0x3d0: LW r2,24(r30)
At PC = 0x3d4: SLL r0,r0,0
At PC = 0x3d8: SLTI r2,r2,41
At PC = 0x3dc: BNE r2,r0,3
At PC = 0x3e0: SLL r0,r0,0
Yielding thread "main"
Putting thread main on ready list.
Switching from thread "main" to thread "2 CHILD"
Now in thread "2 CHILD"
0At PC = 0xc8: JR r0,r31
At PC = 0xcc: SLL r0,r0,0
At PC = 0x1cc: JAL 52
At PC = 0x1d0: ADDIU r4,r0,10
At PC = 0xd0: ADDIU r2,r0,12
At PC = 0xd4: SYSCALL
Exception: syscall
Sleeping thread "2 CHILD"
Switching from thread "2 CHILD" to thread "3 CHILD"
Now in thread "3 CHILD"
At PC = 0x374: LW r2,24(r30)
At PC = 0x378: SLL r0,r0,0
At PC = 0x37c: ADDU r2,r3,r2
At PC = 0x380: SW r2,16(r30)
At PC = 0x384: LW r2,24(r30)
At PC = 0x388: SLL r0,r0,0
At PC = 0x38c: ADDIU r2,r2,1
At PC = 0x390: J 213
At PC = 0x394: SW r2,24(r30)
At PC = 0x354: LW r2,24(r30)
At PC = 0x358: SLL r0,r0,0
At PC = 0x35c: SLTI r2,r2,31
At PC = 0x360: BNE r2,r0,3
At PC = 0x364: SLL r0,r0,0
At PC = 0x370: LW r3,16(r30)
At PC = 0x374: LW r2,24(r30)
At PC = 0x378: SLL r0,r0,0
At PC = 0x37c: ADDU r2,r3,r2
At PC = 0x380: SW r2,16(r30)
At PC = 0x384: LW r2,24(r30)
At PC = 0x388: SLL r0,r0,0
At PC = 0x38c: ADDIU r2,r2,1
At PC = 0x390: J 213
At PC = 0x394: SW r2,24(r30)
At PC = 0x354: LW r2,24(r30)
At PC = 0x358: SLL r0,r0,0
At PC = 0x35c: SLTI r2,r2,31
At PC = 0x360: BNE r2,r0,3
At PC = 0x364: SLL r0,r0,0
At PC = 0x370: LW r3,16(r30)
At PC = 0x374: LW r2,24(r30)
At PC = 0x378: SLL r0,r0,0
At PC = 0x37c: ADDU r2,r3,r2
At PC = 0x380: SW r2,16(r30)
At PC = 0x384: LW r2,24(r30)
At PC = 0x388: SLL r0,r0,0
At PC = 0x38c: ADDIU r2,r2,1
At PC = 0x390: J 213
At PC = 0x394: SW r2,24(r30)
At PC = 0x354: LW r2,24(r30)
At PC = 0x358: SLL r0,r0,0
At PC = 0x35c: SLTI r2,r2,31
At PC = 0x360: BNE r2,r0,3
At PC = 0x364: SLL r0,r0,0
At PC = 0x370: LW r3,16(r30)
At PC = 0x374: LW r2,24(r30)
At PC = 0x378: SLL r0,r0,0
At PC = 0x37c: ADDU r2,r3,r2
At PC = 0x380: SW r2,16(r30)
At PC = 0x384: LW r2,24(r30)
At PC = 0x388: SLL r0,r0,0
At PC = 0x38c: ADDIU r2,r2,1
At PC = 0x390: J 213
At PC = 0x394: SW r2,24(r30)
At PC = 0x354: LW r2,24(r30)
At PC = 0x358: SLL r0,r0,0
At PC = 0x35c: SLTI r2,r2,31
At PC = 0x360: BNE r2,r0,3
At PC = 0x364: SLL r0,r0,0
At PC = 0x370: LW r3,16(r30)
At PC = 0x374: LW r2,24(r30)
At PC = 0x378: SLL r0,r0,0
At PC = 0x37c: ADDU r2,r3,r2
At PC = 0x380: SW r2,16(r30)
At PC = 0x384: LW r2,24(r30)
At PC = 0x388: SLL r0,r0,0
At PC = 0x38c: ADDIU r2,r2,1
At PC = 0x390: J 213
At PC = 0x394: SW r2,24(r30)
At PC = 0x354: LW r2,24(r30)
At PC = 0x358: SLL r0,r0,0
At PC = 0x35c: SLTI r2,r2,31
At PC = 0x360: BNE r2,r0,3
At PC = 0x364: SLL r0,r0,0
Yielding thread "3 CHILD"
Putting thread 3 CHILD on ready list.
Switching from thread "3 CHILD" to thread "main"
Now in thread "main"
Putting thread 2 CHILD on ready list.
At PC = 0x3ec: LW r3,16(r30)
At PC = 0x3f0: LW r2,24(r30)
At PC = 0x3f4: SLL r0,r0,0
At PC = 0x3f8: ADDU r2,r3,r2
At PC = 0x3fc: SW r2,16(r30)
At PC = 0x400: LW r2,24(r30)
At PC = 0x404: SLL r0,r0,0
At PC = 0x408: ADDIU r2,r2,1
At PC = 0x40c: J 244
At PC = 0x410: SW r2,24(r30)
At PC = 0x3d0: LW r2,24(r30)
At PC = 0x3d4: SLL r0,r0,0
At PC = 0x3d8: SLTI r2,r2,41
At PC = 0x3dc: BNE r2,r0,3
At PC = 0x3e0: SLL r0,r0,0
At PC = 0x3ec: LW r3,16(r30)
At PC = 0x3f0: LW r2,24(r30)
At PC = 0x3f4: SLL r0,r0,0
At PC = 0x3f8: ADDU r2,r3,r2
At PC = 0x3fc: SW r2,16(r30)
At PC = 0x400: LW r2,24(r30)
At PC = 0x404: SLL r0,r0,0
At PC = 0x408: ADDIU r2,r2,1
At PC = 0x40c: J 244
At PC = 0x410: SW r2,24(r30)
At PC = 0x3d0: LW r2,24(r30)
At PC = 0x3d4: SLL r0,r0,0
At PC = 0x3d8: SLTI r2,r2,41
At PC = 0x3dc: BNE r2,r0,3
At PC = 0x3e0: SLL r0,r0,0
At PC = 0x3ec: LW r3,16(r30)
At PC = 0x3f0: LW r2,24(r30)
At PC = 0x3f4: SLL r0,r0,0
At PC = 0x3f8: ADDU r2,r3,r2
At PC = 0x3fc: SW r2,16(r30)
At PC = 0x400: LW r2,24(r30)
At PC = 0x404: SLL r0,r0,0
At PC = 0x408: ADDIU r2,r2,1
At PC = 0x40c: J 244
At PC = 0x410: SW r2,24(r30)
At PC = 0x3d0: LW r2,24(r30)
At PC = 0x3d4: SLL r0,r0,0
At PC = 0x3d8: SLTI r2,r2,41
At PC = 0x3dc: BNE r2,r0,3
At PC = 0x3e0: SLL r0,r0,0
At PC = 0x3ec: LW r3,16(r30)
At PC = 0x3f0: LW r2,24(r30)
At PC = 0x3f4: SLL r0,r0,0
At PC = 0x3f8: ADDU r2,r3,r2
At PC = 0x3fc: SW r2,16(r30)
At PC = 0x400: LW r2,24(r30)
At PC = 0x404: SLL r0,r0,0
At PC = 0x408: ADDIU r2,r2,1
At PC = 0x40c: J 244
At PC = 0x410: SW r2,24(r30)
At PC = 0x3d0: LW r2,24(r30)
At PC = 0x3d4: SLL r0,r0,0
At PC = 0x3d8: SLTI r2,r2,41
At PC = 0x3dc: BNE r2,r0,3
At PC = 0x3e0: SLL r0,r0,0
At PC = 0x3ec: LW r3,16(r30)
At PC = 0x3f0: LW r2,24(r30)
At PC = 0x3f4: SLL r0,r0,0
At PC = 0x3f8: ADDU r2,r3,r2
At PC = 0x3fc: SW r2,16(r30)
At PC = 0x400: LW r2,24(r30)
At PC = 0x404: SLL r0,r0,0
At PC = 0x408: ADDIU r2,r2,1
At PC = 0x40c: J 244
At PC = 0x410: SW r2,24(r30)
At PC = 0x3d0: LW r2,24(r30)
At PC = 0x3d4: SLL r0,r0,0
At PC = 0x3d8: SLTI r2,r2,41
At PC = 0x3dc: BNE r2,r0,3
At PC = 0x3e0: SLL r0,r0,0
At PC = 0x3e4: J 261
At PC = 0x3e8: SLL r0,r0,0
At PC = 0x414: LW r4,40(r30)
At PC = 0x418: JAL 16
At PC = 0x41c: SLL r0,r0,0
At PC = 0x40: ADDIU r2,r0,3
At PC = 0x44: SYSCALL
Exception: syscall
Got Child PID:3
Got My PID:1
IF MY CHILD IS NOT ALREADY DEAD
Sleeping thread "main"
Switching from thread "main" to thread "3 CHILD"
Now in thread "3 CHILD"
Yielding thread "3 CHILD"
Putting thread 3 CHILD on ready list.
Switching from thread "3 CHILD" to thread "2 CHILD"
Now in thread "2 CHILD"

At PC = 0xd8: JR r0,r31
At PC = 0xdc: SLL r0,r0,0
At PC = 0x1d4: JAL 40
At PC = 0x1d8: SLL r0,r0,0
At PC = 0xa0: ADDIU r2,r0,9
At PC = 0xa4: SYSCALL
Exception: syscall
Calling thread fork
Forking thread "4 CHILD" with func = 0x804e005, arg = 0
Putting thread 4 CHILD on ready list.
At PC = 0xa8: JR r0,r31
At PC = 0xac: SLL r0,r0,0
At PC = 0x1dc: SW r2,40(r30)
At PC = 0x1e0: LW r2,40(r30)
At PC = 0x1e4: SLL r0,r0,0
At PC = 0x1e8: BNE r2,r0,34
At PC = 0x1ec: SLL r0,r0,0
At PC = 0x274: ADDIU r2,r0,11
At PC = 0x278: SW r2,24(r30)
At PC = 0x27c: LW r2,24(r30)
At PC = 0x280: SLL r0,r0,0
At PC = 0x284: SLTI r2,r2,21
At PC = 0x288: BNE r2,r0,3
At PC = 0x28c: SLL r0,r0,0
At PC = 0x298: LW r3,16(r30)
At PC = 0x29c: LW r2,24(r30)
At PC = 0x2a0: SLL r0,r0,0
At PC = 0x2a4: ADDU r2,r3,r2
At PC = 0x2a8: SW r2,16(r30)
At PC = 0x2ac: LW r2,24(r30)
At PC = 0x2b0: SLL r0,r0,0
At PC = 0x2b4: ADDIU r2,r2,1
At PC = 0x2b8: J 159
At PC = 0x2bc: SW r2,24(r30)
At PC = 0x27c: LW r2,24(r30)
At PC = 0x280: SLL r0,r0,0
At PC = 0x284: SLTI r2,r2,21
At PC = 0x288: BNE r2,r0,3
At PC = 0x28c: SLL r0,r0,0
At PC = 0x298: LW r3,16(r30)
At PC = 0x29c: LW r2,24(r30)
At PC = 0x2a0: SLL r0,r0,0
At PC = 0x2a4: ADDU r2,r3,r2
At PC = 0x2a8: SW r2,16(r30)
At PC = 0x2ac: LW r2,24(r30)
At PC = 0x2b0: SLL r0,r0,0
At PC = 0x2b4: ADDIU r2,r2,1
At PC = 0x2b8: J 159
At PC = 0x2bc: SW r2,24(r30)
At PC = 0x27c: LW r2,24(r30)
At PC = 0x280: SLL r0,r0,0
At PC = 0x284: SLTI r2,r2,21
At PC = 0x288: BNE r2,r0,3
At PC = 0x28c: SLL r0,r0,0
At PC = 0x298: LW r3,16(r30)
At PC = 0x29c: LW r2,24(r30)
At PC = 0x2a0: SLL r0,r0,0
At PC = 0x2a4: ADDU r2,r3,r2
At PC = 0x2a8: SW r2,16(r30)
At PC = 0x2ac: LW r2,24(r30)
At PC = 0x2b0: SLL r0,r0,0
At PC = 0x2b4: ADDIU r2,r2,1
At PC = 0x2b8: J 159
At PC = 0x2bc: SW r2,24(r30)
At PC = 0x27c: LW r2,24(r30)
At PC = 0x280: SLL r0,r0,0
At PC = 0x284: SLTI r2,r2,21
At PC = 0x288: BNE r2,r0,3
At PC = 0x28c: SLL r0,r0,0
At PC = 0x298: LW r3,16(r30)
At PC = 0x29c: LW r2,24(r30)
At PC = 0x2a0: SLL r0,r0,0
At PC = 0x2a4: ADDU r2,r3,r2
At PC = 0x2a8: SW r2,16(r30)
At PC = 0x2ac: LW r2,24(r30)
At PC = 0x2b0: SLL r0,r0,0
At PC = 0x2b4: ADDIU r2,r2,1
At PC = 0x2b8: J 159
At PC = 0x2bc: SW r2,24(r30)
At PC = 0x27c: LW r2,24(r30)
At PC = 0x280: SLL r0,r0,0
At PC = 0x284: SLTI r2,r2,21
At PC = 0x288: BNE r2,r0,3
Yielding thread "2 CHILD"
Putting thread 2 CHILD on ready list.
Switching from thread "2 CHILD" to thread "3 CHILD"
Now in thread "3 CHILD"
At PC = 0x368: J 230
At PC = 0x36c: SLL r0,r0,0
At PC = 0x398: JAL 52
At PC = 0x39c: ADDIU r4,r0,67
At PC = 0xd0: ADDIU r2,r0,12
At PC = 0xd4: SYSCALL
Exception: syscall
CAt PC = 0xd8: JR r0,r31
At PC = 0xdc: SLL r0,r0,0
At PC = 0x3a0: LW r4,16(r30)
At PC = 0x3a4: JAL 48
At PC = 0x3a8: SLL r0,r0,0
At PC = 0xc0: ADDIU r2,r0,11
At PC = 0xc4: SYSCALL
Exception: syscall
Sleeping thread "3 CHILD"
Switching from thread "3 CHILD" to thread "4 CHILD"
Now in thread "4 CHILD"
 Restored thread COMPLETELYStarting thread "4 CHILD" at time 944
At PC = 0xa8: JR r0,r31
At PC = 0xac: SLL r0,r0,0
At PC = 0x1dc: SW r2,40(r30)
At PC = 0x1e0: LW r2,40(r30)
At PC = 0x1e4: SLL r0,r0,0
At PC = 0x1e8: BNE r2,r0,34
At PC = 0x1ec: SLL r0,r0,0
At PC = 0x1f0: ADDIU r2,r0,1
At PC = 0x1f4: SW r2,24(r30)
At PC = 0x1f8: LW r2,24(r30)
At PC = 0x1fc: SLL r0,r0,0
At PC = 0x200: SLTI r2,r2,11
At PC = 0x204: BNE r2,r0,3
At PC = 0x208: SLL r0,r0,0
At PC = 0x214: LW r3,16(r30)
At PC = 0x218: LW r2,24(r30)
At PC = 0x21c: SLL r0,r0,0
At PC = 0x220: ADDU r2,r3,r2
At PC = 0x224: SW r2,16(r30)
At PC = 0x228: LW r2,24(r30)
At PC = 0x22c: SLL r0,r0,0
At PC = 0x230: ADDIU r2,r2,1
At PC = 0x234: J 126
At PC = 0x238: SW r2,24(r30)
At PC = 0x1f8: LW r2,24(r30)
At PC = 0x1fc: SLL r0,r0,0
At PC = 0x200: SLTI r2,r2,11
At PC = 0x204: BNE r2,r0,3
At PC = 0x208: SLL r0,r0,0
At PC = 0x214: LW r3,16(r30)
At PC = 0x218: LW r2,24(r30)
At PC = 0x21c: SLL r0,r0,0
At PC = 0x220: ADDU r2,r3,r2
At PC = 0x224: SW r2,16(r30)
At PC = 0x228: LW r2,24(r30)
At PC = 0x22c: SLL r0,r0,0
At PC = 0x230: ADDIU r2,r2,1
At PC = 0x234: J 126
At PC = 0x238: SW r2,24(r30)
At PC = 0x1f8: LW r2,24(r30)
At PC = 0x1fc: SLL r0,r0,0
At PC = 0x200: SLTI r2,r2,11
At PC = 0x204: BNE r2,r0,3
At PC = 0x208: SLL r0,r0,0
At PC = 0x214: LW r3,16(r30)
At PC = 0x218: LW r2,24(r30)
At PC = 0x21c: SLL r0,r0,0
At PC = 0x220: ADDU r2,r3,r2
At PC = 0x224: SW r2,16(r30)
At PC = 0x228: LW r2,24(r30)
At PC = 0x22c: SLL r0,r0,0
At PC = 0x230: ADDIU r2,r2,1
At PC = 0x234: J 126
At PC = 0x238: SW r2,24(r30)
At PC = 0x1f8: LW r2,24(r30)
At PC = 0x1fc: SLL r0,r0,0
At PC = 0x200: SLTI r2,r2,11
At PC = 0x204: BNE r2,r0,3
Yielding thread "4 CHILD"
Putting thread 4 CHILD on ready list.
Switching from thread "4 CHILD" to thread "2 CHILD"
Now in thread "2 CHILD"
At PC = 0x28c: SLL r0,r0,0
At PC = 0x298: LW r3,16(r30)
At PC = 0x29c: LW r2,24(r30)
At PC = 0x2a0: SLL r0,r0,0
At PC = 0x2a4: ADDU r2,r3,r2
At PC = 0x2a8: SW r2,16(r30)
At PC = 0x2ac: LW r2,24(r30)
At PC = 0x2b0: SLL r0,r0,0
At PC = 0x2b4: ADDIU r2,r2,1
At PC = 0x2b8: J 159
At PC = 0x2bc: SW r2,24(r30)
At PC = 0x27c: LW r2,24(r30)
At PC = 0x280: SLL r0,r0,0
At PC = 0x284: SLTI r2,r2,21
At PC = 0x288: BNE r2,r0,3
Putting thread 3 CHILD on ready list.
At PC = 0x28c: SLL r0,r0,0
At PC = 0x298: LW r3,16(r30)
At PC = 0x29c: LW r2,24(r30)
At PC = 0x2a0: SLL r0,r0,0
At PC = 0x2a4: ADDU r2,r3,r2
At PC = 0x2a8: SW r2,16(r30)
At PC = 0x2ac: LW r2,24(r30)
At PC = 0x2b0: SLL r0,r0,0
At PC = 0x2b4: ADDIU r2,r2,1
At PC = 0x2b8: J 159
At PC = 0x2bc: SW r2,24(r30)
At PC = 0x27c: LW r2,24(r30)
At PC = 0x280: SLL r0,r0,0
At PC = 0x284: SLTI r2,r2,21
At PC = 0x288: BNE r2,r0,3
At PC = 0x28c: SLL r0,r0,0
At PC = 0x298: LW r3,16(r30)
At PC = 0x29c: LW r2,24(r30)
At PC = 0x2a0: SLL r0,r0,0
At PC = 0x2a4: ADDU r2,r3,r2
At PC = 0x2a8: SW r2,16(r30)
At PC = 0x2ac: LW r2,24(r30)
At PC = 0x2b0: SLL r0,r0,0
At PC = 0x2b4: ADDIU r2,r2,1
At PC = 0x2b8: J 159
At PC = 0x2bc: SW r2,24(r30)
At PC = 0x27c: LW r2,24(r30)
At PC = 0x280: SLL r0,r0,0
At PC = 0x284: SLTI r2,r2,21
At PC = 0x288: BNE r2,r0,3
At PC = 0x28c: SLL r0,r0,0
At PC = 0x298: LW r3,16(r30)
At PC = 0x29c: LW r2,24(r30)
At PC = 0x2a0: SLL r0,r0,0
At PC = 0x2a4: ADDU r2,r3,r2
At PC = 0x2a8: SW r2,16(r30)
At PC = 0x2ac: LW r2,24(r30)
At PC = 0x2b0: SLL r0,r0,0
At PC = 0x2b4: ADDIU r2,r2,1
At PC = 0x2b8: J 159
At PC = 0x2bc: SW r2,24(r30)
At PC = 0x27c: LW r2,24(r30)
At PC = 0x280: SLL r0,r0,0
At PC = 0x284: SLTI r2,r2,21
At PC = 0x288: BNE r2,r0,3
At PC = 0x28c: SLL r0,r0,0
At PC = 0x298: LW r3,16(r30)
At PC = 0x29c: LW r2,24(r30)
At PC = 0x2a0: SLL r0,r0,0
At PC = 0x2a4: ADDU r2,r3,r2
At PC = 0x2a8: SW r2,16(r30)
At PC = 0x2ac: LW r2,24(r30)
At PC = 0x2b0: SLL r0,r0,0
At PC = 0x2b4: ADDIU r2,r2,1
At PC = 0x2b8: J 159
At PC = 0x2bc: SW r2,24(r30)
At PC = 0x27c: LW r2,24(r30)
At PC = 0x280: SLL r0,r0,0
At PC = 0x284: SLTI r2,r2,21
At PC = 0x288: BNE r2,r0,3
At PC = 0x28c: SLL r0,r0,0
At PC = 0x298: LW r3,16(r30)
At PC = 0x29c: LW r2,24(r30)
At PC = 0x2a0: SLL r0,r0,0
At PC = 0x2a4: ADDU r2,r3,r2
At PC = 0x2a8: SW r2,16(r30)
At PC = 0x2ac: LW r2,24(r30)
At PC = 0x2b0: SLL r0,r0,0
At PC = 0x2b4: ADDIU r2,r2,1
At PC = 0x2b8: J 159
At PC = 0x2bc: SW r2,24(r30)
At PC = 0x27c: LW r2,24(r30)
At PC = 0x280: SLL r0,r0,0
At PC = 0x284: SLTI r2,r2,21
At PC = 0x288: BNE r2,r0,3
Yielding thread "2 CHILD"
Putting thread 2 CHILD on ready list.
Switching from thread "2 CHILD" to thread "4 CHILD"
Now in thread "4 CHILD"
At PC = 0x208: SLL r0,r0,0
At PC = 0x214: LW r3,16(r30)
At PC = 0x218: LW r2,24(r30)
At PC = 0x21c: SLL r0,r0,0
At PC = 0x220: ADDU r2,r3,r2
At PC = 0x224: SW r2,16(r30)
At PC = 0x228: LW r2,24(r30)
At PC = 0x22c: SLL r0,r0,0
At PC = 0x230: ADDIU r2,r2,1
At PC = 0x234: J 126
At PC = 0x238: SW r2,24(r30)
At PC = 0x1f8: LW r2,24(r30)
At PC = 0x1fc: SLL r0,r0,0
At PC = 0x200: SLTI r2,r2,11
At PC = 0x204: BNE r2,r0,3
At PC = 0x208: SLL r0,r0,0
At PC = 0x214: LW r3,16(r30)
At PC = 0x218: LW r2,24(r30)
At PC = 0x21c: SLL r0,r0,0
At PC = 0x220: ADDU r2,r3,r2
At PC = 0x224: SW r2,16(r30)
At PC = 0x228: LW r2,24(r30)
At PC = 0x22c: SLL r0,r0,0
At PC = 0x230: ADDIU r2,r2,1
At PC = 0x234: J 126
At PC = 0x238: SW r2,24(r30)
At PC = 0x1f8: LW r2,24(r30)
At PC = 0x1fc: SLL r0,r0,0
At PC = 0x200: SLTI r2,r2,11
At PC = 0x204: BNE r2,r0,3
At PC = 0x208: SLL r0,r0,0
At PC = 0x214: LW r3,16(r30)
At PC = 0x218: LW r2,24(r30)
At PC = 0x21c: SLL r0,r0,0
At PC = 0x220: ADDU r2,r3,r2
At PC = 0x224: SW r2,16(r30)
At PC = 0x228: LW r2,24(r30)
At PC = 0x22c: SLL r0,r0,0
At PC = 0x230: ADDIU r2,r2,1
At PC = 0x234: J 126
At PC = 0x238: SW r2,24(r30)
At PC = 0x1f8: LW r2,24(r30)
At PC = 0x1fc: SLL r0,r0,0
At PC = 0x200: SLTI r2,r2,11
At PC = 0x204: BNE r2,r0,3
At PC = 0x208: SLL r0,r0,0
At PC = 0x214: LW r3,16(r30)
At PC = 0x218: LW r2,24(r30)
At PC = 0x21c: SLL r0,r0,0
At PC = 0x220: ADDU r2,r3,r2
At PC = 0x224: SW r2,16(r30)
At PC = 0x228: LW r2,24(r30)
At PC = 0x22c: SLL r0,r0,0
At PC = 0x230: ADDIU r2,r2,1
At PC = 0x234: J 126
At PC = 0x238: SW r2,24(r30)
At PC = 0x1f8: LW r2,24(r30)
At PC = 0x1fc: SLL r0,r0,0
At PC = 0x200: SLTI r2,r2,11
At PC = 0x204: BNE r2,r0,3
At PC = 0x208: SLL r0,r0,0
At PC = 0x214: LW r3,16(r30)
At PC = 0x218: LW r2,24(r30)
At PC = 0x21c: SLL r0,r0,0
At PC = 0x220: ADDU r2,r3,r2
At PC = 0x224: SW r2,16(r30)
At PC = 0x228: LW r2,24(r30)
At PC = 0x22c: SLL r0,r0,0
At PC = 0x230: ADDIU r2,r2,1
At PC = 0x234: J 126
At PC = 0x238: SW r2,24(r30)
At PC = 0x1f8: LW r2,24(r30)
At PC = 0x1fc: SLL r0,r0,0
At PC = 0x200: SLTI r2,r2,11
At PC = 0x204: BNE r2,r0,3
At PC = 0x208: SLL r0,r0,0
At PC = 0x214: LW r3,16(r30)
At PC = 0x218: LW r2,24(r30)
At PC = 0x21c: SLL r0,r0,0
At PC = 0x220: ADDU r2,r3,r2
At PC = 0x224: SW r2,16(r30)
At PC = 0x228: LW r2,24(r30)
At PC = 0x22c: SLL r0,r0,0
At PC = 0x230: ADDIU r2,r2,1
At PC = 0x234: J 126
At PC = 0x238: SW r2,24(r30)
At PC = 0x1f8: LW r2,24(r30)
At PC = 0x1fc: SLL r0,r0,0
At PC = 0x200: SLTI r2,r2,11
At PC = 0x204: BNE r2,r0,3
Yielding thread "4 CHILD"
Putting thread 4 CHILD on ready list.
Switching from thread "4 CHILD" to thread "3 CHILD"
Now in thread "3 CHILD"
3Sleeping thread "3 CHILD"
Switching from thread "3 CHILD" to thread "2 CHILD"
Now in thread "2 CHILD"
At PC = 0x28c: SLL r0,r0,0
At PC = 0x290: J 176
At PC = 0x294: SLL r0,r0,0
At PC = 0x2c0: LW r4,40(r30)
At PC = 0x2c4: JAL 16
At PC = 0x2c8: SLL r0,r0,0
At PC = 0x40: ADDIU r2,r0,3
At PC = 0x44: SYSCALL
Exception: syscall
Got Child PID:4
Got My PID:2
IF MY CHILD IS NOT ALREADY DEAD
Sleeping thread "2 CHILD"
Switching from thread "2 CHILD" to thread "4 CHILD"
Now in thread "4 CHILD"
At PC = 0x208: SLL r0,r0,0
At PC = 0x214: LW r3,16(r30)
At PC = 0x218: LW r2,24(r30)
At PC = 0x21c: SLL r0,r0,0
At PC = 0x220: ADDU r2,r3,r2
At PC = 0x224: SW r2,16(r30)
At PC = 0x228: LW r2,24(r30)
At PC = 0x22c: SLL r0,r0,0
At PC = 0x230: ADDIU r2,r2,1
At PC = 0x234: J 126
At PC = 0x238: SW r2,24(r30)
At PC = 0x1f8: LW r2,24(r30)
At PC = 0x1fc: SLL r0,r0,0
At PC = 0x200: SLTI r2,r2,11
At PC = 0x204: BNE r2,r0,3
At PC = 0x208: SLL r0,r0,0
At PC = 0x20c: J 143
At PC = 0x210: SLL r0,r0,0
At PC = 0x23c: JAL 52
At PC = 0x240: ADDIU r4,r0,66
At PC = 0xd0: ADDIU r2,r0,12
At PC = 0xd4: SYSCALL
Exception: syscall
Sleeping thread "4 CHILD"
Putting thread 3 CHILD on ready list.
Switching from thread "4 CHILD" to thread "3 CHILD"
Now in thread "3 CHILD"
0Sleeping thread "3 CHILD"
Putting thread 4 CHILD on ready list.
Switching from thread "3 CHILD" to thread "4 CHILD"
Now in thread "4 CHILD"
BAt PC = 0xd8: JR r0,r31
At PC = 0xdc: SLL r0,r0,0
At PC = 0x244: JAL 52
At PC = 0x248: ADDIU r4,r0,10
At PC = 0xd0: ADDIU r2,r0,12
At PC = 0xd4: SYSCALL
Exception: syscall
Sleeping thread "4 CHILD"
Putting thread 3 CHILD on ready list.
Switching from thread "4 CHILD" to thread "3 CHILD"
Now in thread "3 CHILD"
5At PC = 0xc8: JR r0,r31
At PC = 0xcc: SLL r0,r0,0
At PC = 0x3ac: JAL 52
At PC = 0x3b0: ADDIU r4,r0,10
At PC = 0xd0: ADDIU r2,r0,12
At PC = 0xd4: SYSCALL
Exception: syscall
Sleeping thread "3 CHILD"
Putting thread 4 CHILD on ready list.
Switching from thread "3 CHILD" to thread "4 CHILD"
Now in thread "4 CHILD"

At PC = 0xd8: JR r0,r31
At PC = 0xdc: SLL r0,r0,0
At PC = 0x24c: LW r4,16(r30)
At PC = 0x250: JAL 48
At PC = 0x254: SLL r0,r0,0
At PC = 0xc0: ADDIU r2,r0,11
At PC = 0xc4: SYSCALL
Exception: syscall
Sleeping thread "4 CHILD"
Putting thread 3 CHILD on ready list.
Switching from thread "4 CHILD" to thread "3 CHILD"
Now in thread "3 CHILD"

At PC = 0xd8: JR r0,r31
At PC = 0xdc: SLL r0,r0,0
At PC = 0x3b4: LW r4,16(r30)
At PC = 0x3b8: JAL 8
At PC = 0x3bc: SLL r0,r0,0
At PC = 0x20: ADDIU r2,r0,1
At PC = 0x24: SYSCALL
Exception: syscall
IN EXIT VALUE:410 
WAKING UP PARENT THREAD
Putting thread main on ready list.
Finishing thread "3 CHILD"
Sleeping thread "3 CHILD"
Switching from thread "3 CHILD" to thread "main"
Now in thread "main"
Deleting thread "3 CHILD"
At PC = 0x48: JR r0,r31
At PC = 0x4c: SLL r0,r0,0
At PC = 0x420: ADDU r3,r2,r0
At PC = 0x424: LW r2,16(r30)
At PC = 0x428: SLL r0,r0,0
At PC = 0x42c: ADDU r2,r2,r3
At PC = 0x430: SW r2,16(r30)
At PC = 0x434: LW r4,20(r30)
At PC = 0x438: JAL 16
At PC = 0x43c: SLL r0,r0,0
At PC = 0x40: ADDIU r2,r0,3
At PC = 0x44: SYSCALL
Exception: syscall
Got Child PID:2
Got My PID:1
IF MY CHILD IS NOT ALREADY DEAD
Sleeping thread "main"
Putting thread 4 CHILD on ready list.
Switching from thread "main" to thread "4 CHILD"
Now in thread "4 CHILD"
3Sleeping thread "4 CHILD"
Putting thread 4 CHILD on ready list.
Switching from thread "4 CHILD" to thread "4 CHILD"
Now in thread "4 CHILD"
1Sleeping thread "4 CHILD"
Putting thread 4 CHILD on ready list.
Switching from thread "4 CHILD" to thread "4 CHILD"
Now in thread "4 CHILD"
0At PC = 0xc8: JR r0,r31
At PC = 0xcc: SLL r0,r0,0
At PC = 0x258: JAL 52
At PC = 0x25c: ADDIU r4,r0,10
At PC = 0xd0: ADDIU r2,r0,12
At PC = 0xd4: SYSCALL
Exception: syscall
Sleeping thread "4 CHILD"
Putting thread 4 CHILD on ready list.
Switching from thread "4 CHILD" to thread "4 CHILD"
Now in thread "4 CHILD"
Yielding thread "4 CHILD"

At PC = 0xd8: JR r0,r31
At PC = 0xdc: SLL r0,r0,0
At PC = 0x260: LW r4,16(r30)
At PC = 0x264: JAL 8
At PC = 0x268: SLL r0,r0,0
At PC = 0x20: ADDIU r2,r0,1
At PC = 0x24: SYSCALL
Exception: syscall
IN EXIT VALUE:310 
WAKING UP PARENT THREAD
Putting thread 2 CHILD on ready list.
Finishing thread "4 CHILD"
Sleeping thread "4 CHILD"
Switching from thread "4 CHILD" to thread "2 CHILD"
Now in thread "2 CHILD"
Deleting thread "4 CHILD"
At PC = 0x48: JR r0,r31
At PC = 0x4c: SLL r0,r0,0
At PC = 0x2cc: LW r3,16(r30)
At PC = 0x2d0: SLL r0,r0,0
At PC = 0x2d4: ADDU r2,r3,r2
At PC = 0x2d8: SW r2,16(r30)
At PC = 0x2dc: JAL 52
At PC = 0x2e0: ADDIU r4,r0,66
At PC = 0xd0: ADDIU r2,r0,12
At PC = 0xd4: SYSCALL
Exception: syscall
Sleeping thread "2 CHILD"
Putting thread 2 CHILD on ready list.
Switching from thread "2 CHILD" to thread "2 CHILD"
Now in thread "2 CHILD"
BAt PC = 0xd8: JR r0,r31
At PC = 0xdc: SLL r0,r0,0
At PC = 0x2e4: JAL 52
At PC = 0x2e8: ADDIU r4,r0,10
At PC = 0xd0: ADDIU r2,r0,12
At PC = 0xd4: SYSCALL
Exception: syscall
Sleeping thread "2 CHILD"
Putting thread 2 CHILD on ready list.
Switching from thread "2 CHILD" to thread "2 CHILD"
Now in thread "2 CHILD"

At PC = 0xd8: JR r0,r31
At PC = 0xdc: SLL r0,r0,0
At PC = 0x2ec: LW r4,16(r30)
At PC = 0x2f0: JAL 48
At PC = 0x2f4: SLL r0,r0,0
At PC = 0xc0: ADDIU r2,r0,11
At PC = 0xc4: SYSCALL
Exception: syscall
Sleeping thread "2 CHILD"
Putting thread 2 CHILD on ready list.
Switching from thread "2 CHILD" to thread "2 CHILD"
Now in thread "2 CHILD"
7Sleeping thread "2 CHILD"
Putting thread 2 CHILD on ready list.
Switching from thread "2 CHILD" to thread "2 CHILD"
Now in thread "2 CHILD"
2Sleeping thread "2 CHILD"
Putting thread 2 CHILD on ready list.
Switching from thread "2 CHILD" to thread "2 CHILD"
Now in thread "2 CHILD"
0At PC = 0xc8: JR r0,r31
At PC = 0xcc: SLL r0,r0,0
At PC = 0x2f8: JAL 52
At PC = 0x2fc: ADDIU r4,r0,10
At PC = 0xd0: ADDIU r2,r0,12
At PC = 0xd4: SYSCALL
Exception: syscall
Sleeping thread "2 CHILD"
Putting thread 2 CHILD on ready list.
Switching from thread "2 CHILD" to thread "2 CHILD"
Now in thread "2 CHILD"

At PC = 0xd8: JR r0,r31
At PC = 0xdc: SLL r0,r0,0
At PC = 0x300: LW r4,16(r30)
At PC = 0x304: JAL 8
At PC = 0x308: SLL r0,r0,0
At PC = 0x20: ADDIU r2,r0,1
At PC = 0x24: SYSCALL
Exception: syscall
IN EXIT VALUE:720 
WAKING UP PARENT THREAD
Putting thread main on ready list.
Finishing thread "2 CHILD"
Sleeping thread "2 CHILD"
Switching from thread "2 CHILD" to thread "main"
Now in thread "main"
Deleting thread "2 CHILD"
At PC = 0x48: JR r0,r31
At PC = 0x4c: SLL r0,r0,0
Yielding thread "main"
At PC = 0x440: SW r2,44(r30)
At PC = 0x444: JAL 52
At PC = 0x448: ADDIU r4,r0,77
At PC = 0xd0: ADDIU r2,r0,12
At PC = 0xd4: SYSCALL
Exception: syscall
Sleeping thread "main"
Putting thread main on ready list.
Switching from thread "main" to thread "main"
Now in thread "main"
MAt PC = 0xd8: JR r0,r31
At PC = 0xdc: SLL r0,r0,0
At PC = 0x44c: LW r4,44(r30)
At PC = 0x450: JAL 48
At PC = 0x454: SLL r0,r0,0
At PC = 0xc0: ADDIU r2,r0,11
At PC = 0xc4: SYSCALL
Exception: syscall
Sleeping thread "main"
Putting thread main on ready list.
Switching from thread "main" to thread "main"
Now in thread "main"
7Sleeping thread "main"
Putting thread main on ready list.
Switching from thread "main" to thread "main"
Now in thread "main"
Yielding thread "main"
2Sleeping thread "main"
Putting thread main on ready list.
Switching from thread "main" to thread "main"
Now in thread "main"
0At PC = 0xc8: JR r0,r31
At PC = 0xcc: SLL r0,r0,0
At PC = 0x458: JAL 52
At PC = 0x45c: ADDIU r4,r0,10
At PC = 0xd0: ADDIU r2,r0,12
At PC = 0xd4: SYSCALL
Exception: syscall
Sleeping thread "main"
Putting thread main on ready list.
Switching from thread "main" to thread "main"
Now in thread "main"

At PC = 0xd8: JR r0,r31
At PC = 0xdc: SLL r0,r0,0
At PC = 0x460: LW r4,16(r30)
At PC = 0x464: JAL 48
At PC = 0x468: SLL r0,r0,0
At PC = 0xc0: ADDIU r2,r0,11
At PC = 0xc4: SYSCALL
Exception: syscall
Sleeping thread "main"
Putting thread main on ready list.
Switching from thread "main" to thread "main"
Now in thread "main"
7Sleeping thread "main"
Putting thread main on ready list.
Switching from thread "main" to thread "main"
Now in thread "main"
6Sleeping thread "main"
Putting thread main on ready list.
Switching from thread "main" to thread "main"
Now in thread "main"
5At PC = 0xc8: JR r0,r31
At PC = 0xcc: SLL r0,r0,0
At PC = 0x46c: JAL 52
At PC = 0x470: ADDIU r4,r0,10
At PC = 0xd0: ADDIU r2,r0,12
At PC = 0xd4: SYSCALL
Exception: syscall
Sleeping thread "main"
Putting thread main on ready list.
Switching from thread "main" to thread "main"
Now in thread "main"

At PC = 0xd8: JR r0,r31
At PC = 0xdc: SLL r0,r0,0
At PC = 0x474: JAL 52
At PC = 0x478: ADDIU r4,r0,68
At PC = 0xd0: ADDIU r2,r0,12
At PC = 0xd4: SYSCALL
Exception: syscall
Sleeping thread "main"
Putting thread main on ready list.
Switching from thread "main" to thread "main"
Now in thread "main"
DAt PC = 0xd8: JR r0,r31
At PC = 0xdc: SLL r0,r0,0
At PC = 0x47c: LW r3,16(r30)
At PC = 0x480: LW r2,44(r30)
At PC = 0x484: SLL r0,r0,0
At PC = 0x488: ADDU r2,r3,r2
At PC = 0x48c: JAL 48
At PC = 0x490: ADDU r4,r2,r0
At PC = 0xc0: ADDIU r2,r0,11
At PC = 0xc4: SYSCALL
Exception: syscall
Sleeping thread "main"
Putting thread main on ready list.
Switching from thread "main" to thread "main"
Now in thread "main"
1Sleeping thread "main"
Putting thread main on ready list.
Switching from thread "main" to thread "main"
Now in thread "main"
Yielding thread "main"
4Sleeping thread "main"
Putting thread main on ready list.
Switching from thread "main" to thread "main"
Now in thread "main"
8Sleeping thread "main"
Putting thread main on ready list.
Switching from thread "main" to thread "main"
Now in thread "main"
5At PC = 0xc8: JR r0,r31
At PC = 0xcc: SLL r0,r0,0
At PC = 0x494: JAL 52
At PC = 0x498: ADDIU r4,r0,10
At PC = 0xd0: ADDIU r2,r0,12
At PC = 0xd4: SYSCALL
Exception: syscall
Sleeping thread "main"
Putting thread main on ready list.
Switching from thread "main" to thread "main"
Now in thread "main"

At PC = 0xd8: JR r0,r31
At PC = 0xdc: SLL r0,r0,0
At PC = 0x49c: ADDU r2,r0,r0
At PC = 0x4a0: ADDU r29,r30,r0
At PC = 0x4a4: LW r31,52(r29)
At PC = 0x4a8: LW r30,48(r29)
At PC = 0x4ac: JR r0,r31
At PC = 0x4b0: ADDIU r29,r29,56
At PC = 0x8: JAL 8
At PC = 0xc: ADDU r4,r0,r0
At PC = 0x20: ADDIU r2,r0,1
At PC = 0x24: SYSCALL
Exception: syscall
IN EXIT VALUE:0 
Machine halting!

Ticks: total 4554, idle 3000, system 640, user 914
Disk I/O: reads 0, writes 0
Console I/O: reads 0, writes 37
Paging: faults 0
Network I/O: packets received 0, sent 0

Cleaning up...
